BIOC13 Statistics – Computational statistics
…
\(\chi^2\) Goodness of fit

Does the observed data differ from an expected distribution?

# A tibble: 120 × 1
   phenotype
   <chr>    
 1 A-B-     
 2 A-B-     
 3 A-B-     
 4 A-B-     
 5 A-B-     
 6 A-B-     
 7 A-B-     
 8 A-B-     
 9 A-B-     
10 A-B-     
# ℹ 110 more rows
…
\(\chi^2\) Test of independence

Are two categorical variables associated with each other?

germ_data

# A tibble: 120 × 2
   treatment germination_success
   <chr>     <chr>              
 1 coating_a germinated         
 2 coating_a germinated         
 3 coating_a germinated         
 4 coating_a failed_to_germinate
 5 coating_a germinated         
 6 coating_a germinated         
 7 coating_a germinated         
 8 coating_a germinated         
 9 coating_a germinated         
10 coating_a germinated         
# ℹ 110 more rows
…
Regression

Confidence intervals

boot_dist <-
  mating_data |>
  specify(reproductive_success ~ mating_success) |>
  generate(reps = 1000, type = "bootstrap") |>
  fit()

boot_dist

# A tibble: 2,000 × 3
# Groups:   replicate [1,000]
   replicate term           estimate
       <int> <chr>             <dbl>
 1         1 intercept        -3.75 
 2         1 mating_success    4.32 
 3         2 intercept        -4.96 
 4         2 mating_success    4.73 
 5         3 intercept        -0.267
 6         3 mating_success    3.80 
 7         4 intercept         6.72 
 8         4 mating_success    2.84 
 9         5 intercept        -1.08 
10         5 mating_success    3.96 
# ℹ 1,990 more rows
…
Regression

Hypothesis test

null_dist <-
  mating_data |>
  specify(reproductive_success ~ mating_success) |>
  hypothesize(null = "independence") |>
  generate(reps = 1000, type = "permute") |>
  fit()

null_dist

# A tibble: 2,000 × 3
# Groups:   replicate [1,000]
   replicate term           estimate
       <int> <chr>             <dbl>
 1         1 intercept       20.3   
 2         1 mating_success   0.0382
 3         2 intercept       23.9   
 4         2 mating_success  -0.603 
 5         3 intercept       25.8   
 6         3 mating_success  -0.951 
 7         4 intercept       23.7   
 8         4 mating_success  -0.570 
 9         5 intercept       27.2   
10         5 mating_success  -1.20  
# ℹ 1,990 more rows
…
